\relax 
\providecommand*\new@tpo@label[2]{}
\catcode `:\active 
\catcode `;\active 
\catcode `!\active 
\catcode `?\active 
\select@language{french}
\@writefile{toc}{\select@language{french}}
\@writefile{lof}{\select@language{french}}
\@writefile{lot}{\select@language{french}}
\@writefile{toc}{\contentsline {section}{\numberline {1}But}{1}}
\providecommand*\caption@xref[2]{\@setref\relax\@undefined{#1}}
\newlabel{listing:environnement}{{1}{1}}
\@writefile{lol}{\contentsline {lstlisting}{\numberline {1}Placement d'un code en ligne}{1}}
\@writefile{lof}{\contentsline {figure}{\numberline {1}{\ignorespaces La structure de fichier d'un site\relax }}{2}}
\newlabel{figure:dispos}{{1}{2}}
\newlabel{figure:ps}{{2a}{2}}
\newlabel{sub@figure:ps}{{a}{2}}
\newlabel{figure:pdf}{{2b}{2}}
\newlabel{sub@figure:pdf}{{b}{2}}
\@writefile{lof}{\contentsline {figure}{\numberline {2}{\ignorespaces subfigures}}{2}}
\newlabel{figure:subfigures}{{2}{2}}
\@writefile{toc}{\contentsline {section}{\numberline {2}R\IeC {\'e}alisation}{2}}
\newlabel{listing:subfigure}{{2}{3}}
\@writefile{lol}{\contentsline {lstlisting}{\numberline {2}Placer des sous-figures}{3}}
\newlabel{listing:turtle}{{3}{3}}
\@writefile{lol}{\contentsline {lstlisting}{\numberline {3}Un code utilisant turtle}{3}}
\@writefile{toc}{\contentsline {section}{\numberline {3}Probl\IeC {\`e}mes rencontr\IeC {\'e}s}{3}}
\newlabel{listing:horsligne}{{4}{3}}
\@writefile{lol}{\contentsline {lstlisting}{\numberline {4}Placement d'un code hors ligne}{3}}
\newlabel{listing:fichierext}{{5}{4}}
\@writefile{lol}{\contentsline {lstlisting}{\numberline {5}Code dans un fichier}{4}}
\newlabel{listing:nomfichier}{{5}{4}}
\newlabel{listing:html}{{6}{4}}
\@writefile{lol}{\contentsline {lstlisting}{\numberline {6}Un code utilisant html5}{4}}
\@writefile{toc}{\contentsline {section}{\numberline {4}Analyse}{4}}
\@writefile{toc}{\contentsline {section}{\numberline {5}Conclusion}{4}}
\newlabel{listing:css}{{7}{5}}
\@writefile{lol}{\contentsline {lstlisting}{\numberline {7}Un code CSS}{5}}
\newlabel{listing:html5}{{8}{6}}
\@writefile{lol}{\contentsline {lstlisting}{\numberline {8}Un code CSS}{6}}
\@writefile{toc}{\contentsline {section}{\numberline {A}Premi\IeC {\`e}re annexe}{6}}
\@writefile{toc}{\contentsline {section}{\numberline {B}Seconde annexe}{6}}
\citation{EinsteinPR1935}
\newlabel{listing:javascript}{{9}{7}}
\@writefile{lol}{\contentsline {lstlisting}{\numberline {9}Un code JavaSrcipt}{7}}
\newlabel{listing:biblio}{{10}{7}}
\@writefile{lol}{\contentsline {lstlisting}{\numberline {10}La biliographie}{7}}
\newlabel{biblionb}{{1}{7}}
\@writefile{toc}{\contentsline {subsection}{\numberline {B.1}Notes}{7}}
\@writefile{toc}{\contentsline {subsection}{\numberline {B.2}R\IeC {\'e}f\IeC {\'e}rences}{7}}
\@writefile{toc}{\contentsline {subsection}{\numberline {B.3}Placement des flottants}{7}}
\bibcite{EinsteinPR1935}{1}
\global\csname @altsecnumformattrue\endcsname
