%!PS-Adobe-2.0 EPSF-2.0
%%Title: /home/vincent/Documents/Latex/Latex-OCI/images/StructureSite.dia
%%Creator: Dia v0.97+git
%%CreationDate: Wed Feb  6 10:37:07 2019
%%For: vincent
%%Orientation: Portrait
%%Magnification: 1.0000
%%BoundingBox: 0 0 338 275
%%BeginSetup
%%EndSetup
%%EndComments
%%BeginProlog
[ /.notdef /.notdef /.notdef /.notdef /.notdef /.notdef /.notdef /.notdef /.notdef /.notdef
/.notdef /.notdef /.notdef /.notdef /.notdef /.notdef /.notdef /.notdef /.notdef /.notdef
/.notdef /.notdef /.notdef /.notdef /.notdef /.notdef /.notdef /.notdef /.notdef /.notdef
/.notdef /.notdef /space /exclam /quotedbl /numbersign /dollar /percent /ampersand /quoteright
/parenleft /parenright /asterisk /plus /comma /hyphen /period /slash /zero /one
/two /three /four /five /six /seven /eight /nine /colon /semicolon
/less /equal /greater /question /at /A /B /C /D /E
/F /G /H /I /J /K /L /M /N /O
/P /Q /R /S /T /U /V /W /X /Y
/Z /bracketleft /backslash /bracketright /asciicircum /underscore /quoteleft /a /b /c
/d /e /f /g /h /i /j /k /l /m
/n /o /p /q /r /s /t /u /v /w
/x /y /z /braceleft /bar /braceright /asciitilde /.notdef /.notdef /.notdef
/.notdef /.notdef /.notdef /.notdef /.notdef /.notdef /.notdef /.notdef /.notdef /.notdef
/.notdef /.notdef /.notdef /.notdef /.notdef /.notdef /.notdef /.notdef /.notdef /.notdef
/.notdef /.notdef /.notdef /.notdef /.notdef /.notdef /.notdef /.notdef /.notdef /.notdef
/space /exclamdown /cent /sterling /currency /yen /brokenbar /section /dieresis /copyright
/ordfeminine /guillemotleft /logicalnot /hyphen /registered /macron /degree /plusminus /twosuperior /threesuperior
/acute /mu /paragraph /periodcentered /cedilla /onesuperior /ordmasculine /guillemotright /onequarter /onehalf
/threequarters /questiondown /Agrave /Aacute /Acircumflex /Atilde /Adieresis /Aring /AE /Ccedilla
/Egrave /Eacute /Ecircumflex /Edieresis /Igrave /Iacute /Icircumflex /Idieresis /Eth /Ntilde
/Ograve /Oacute /Ocircumflex /Otilde /Odieresis /multiply /Oslash /Ugrave /Uacute /Ucircumflex
/Udieresis /Yacute /Thorn /germandbls /agrave /aacute /acircumflex /atilde /adieresis /aring
/ae /ccedilla /egrave /eacute /ecircumflex /edieresis /igrave /iacute /icircumflex /idieresis
/eth /ntilde /ograve /oacute /ocircumflex /otilde /odieresis /divide /oslash /ugrave
/uacute /ucircumflex /udieresis /yacute /thorn /ydieresis] /isolatin1encoding exch def
/cp {closepath} bind def
/c {curveto} bind def
/f {fill} bind def
/a {arc} bind def
/ef {eofill} bind def
/ex {exch} bind def
/gr {grestore} bind def
/gs {gsave} bind def
/sa {save} bind def
/rs {restore} bind def
/l {lineto} bind def
/m {moveto} bind def
/rm {rmoveto} bind def
/n {newpath} bind def
/s {stroke} bind def
/sh {show} bind def
/slc {setlinecap} bind def
/slj {setlinejoin} bind def
/slw {setlinewidth} bind def
/srgb {setrgbcolor} bind def
/rot {rotate} bind def
/sc {scale} bind def
/sd {setdash} bind def
/ff {findfont} bind def
/sf {setfont} bind def
/scf {scalefont} bind def
/sw {stringwidth pop} bind def
/tr {translate} bind def

/ellipsedict 8 dict def
ellipsedict /mtrx matrix put
/ellipse
{ ellipsedict begin
   /endangle exch def
   /startangle exch def
   /yrad exch def
   /xrad exch def
   /y exch def
   /x exch def   /savematrix mtrx currentmatrix def
   x y tr xrad yrad sc
   0 0 1 startangle endangle arc
   savematrix setmatrix
   end
} def

/mergeprocs {
dup length
3 -1 roll
dup
length
dup
5 1 roll
3 -1 roll
add
array cvx
dup
3 -1 roll
0 exch
putinterval
dup
4 2 roll
putinterval
} bind def
/Times-Roman-latin1
    /Times-Roman findfont
    dup length dict begin
	{1 index /FID ne {def} {pop pop} ifelse} forall
	/Encoding isolatin1encoding def
    currentdict end
definefont pop
/Times-Italic-latin1
    /Times-Italic findfont
    dup length dict begin
	{1 index /FID ne {def} {pop pop} ifelse} forall
	/Encoding isolatin1encoding def
    currentdict end
definefont pop
/Times-Bold-latin1
    /Times-Bold findfont
    dup length dict begin
	{1 index /FID ne {def} {pop pop} ifelse} forall
	/Encoding isolatin1encoding def
    currentdict end
definefont pop
/Times-BoldItalic-latin1
    /Times-BoldItalic findfont
    dup length dict begin
	{1 index /FID ne {def} {pop pop} ifelse} forall
	/Encoding isolatin1encoding def
    currentdict end
definefont pop
/AvantGarde-Gothic-latin1
    /AvantGarde-Gothic findfont
    dup length dict begin
	{1 index /FID ne {def} {pop pop} ifelse} forall
	/Encoding isolatin1encoding def
    currentdict end
definefont pop
/AvantGarde-BookOblique-latin1
    /AvantGarde-BookOblique findfont
    dup length dict begin
	{1 index /FID ne {def} {pop pop} ifelse} forall
	/Encoding isolatin1encoding def
    currentdict end
definefont pop
/AvantGarde-Demi-latin1
    /AvantGarde-Demi findfont
    dup length dict begin
	{1 index /FID ne {def} {pop pop} ifelse} forall
	/Encoding isolatin1encoding def
    currentdict end
definefont pop
/AvantGarde-DemiOblique-latin1
    /AvantGarde-DemiOblique findfont
    dup length dict begin
	{1 index /FID ne {def} {pop pop} ifelse} forall
	/Encoding isolatin1encoding def
    currentdict end
definefont pop
/Bookman-Light-latin1
    /Bookman-Light findfont
    dup length dict begin
	{1 index /FID ne {def} {pop pop} ifelse} forall
	/Encoding isolatin1encoding def
    currentdict end
definefont pop
/Bookman-LightItalic-latin1
    /Bookman-LightItalic findfont
    dup length dict begin
	{1 index /FID ne {def} {pop pop} ifelse} forall
	/Encoding isolatin1encoding def
    currentdict end
definefont pop
/Bookman-Demi-latin1
    /Bookman-Demi findfont
    dup length dict begin
	{1 index /FID ne {def} {pop pop} ifelse} forall
	/Encoding isolatin1encoding def
    currentdict end
definefont pop
/Bookman-DemiItalic-latin1
    /Bookman-DemiItalic findfont
    dup length dict begin
	{1 index /FID ne {def} {pop pop} ifelse} forall
	/Encoding isolatin1encoding def
    currentdict end
definefont pop
/Courier-latin1
    /Courier findfont
    dup length dict begin
	{1 index /FID ne {def} {pop pop} ifelse} forall
	/Encoding isolatin1encoding def
    currentdict end
definefont pop
/Courier-Oblique-latin1
    /Courier-Oblique findfont
    dup length dict begin
	{1 index /FID ne {def} {pop pop} ifelse} forall
	/Encoding isolatin1encoding def
    currentdict end
definefont pop
/Courier-Bold-latin1
    /Courier-Bold findfont
    dup length dict begin
	{1 index /FID ne {def} {pop pop} ifelse} forall
	/Encoding isolatin1encoding def
    currentdict end
definefont pop
/Courier-BoldOblique-latin1
    /Courier-BoldOblique findfont
    dup length dict begin
	{1 index /FID ne {def} {pop pop} ifelse} forall
	/Encoding isolatin1encoding def
    currentdict end
definefont pop
/Helvetica-latin1
    /Helvetica findfont
    dup length dict begin
	{1 index /FID ne {def} {pop pop} ifelse} forall
	/Encoding isolatin1encoding def
    currentdict end
definefont pop
/Helvetica-Oblique-latin1
    /Helvetica-Oblique findfont
    dup length dict begin
	{1 index /FID ne {def} {pop pop} ifelse} forall
	/Encoding isolatin1encoding def
    currentdict end
definefont pop
/Helvetica-Bold-latin1
    /Helvetica-Bold findfont
    dup length dict begin
	{1 index /FID ne {def} {pop pop} ifelse} forall
	/Encoding isolatin1encoding def
    currentdict end
definefont pop
/Helvetica-BoldOblique-latin1
    /Helvetica-BoldOblique findfont
    dup length dict begin
	{1 index /FID ne {def} {pop pop} ifelse} forall
	/Encoding isolatin1encoding def
    currentdict end
definefont pop
/Helvetica-Narrow-latin1
    /Helvetica-Narrow findfont
    dup length dict begin
	{1 index /FID ne {def} {pop pop} ifelse} forall
	/Encoding isolatin1encoding def
    currentdict end
definefont pop
/Helvetica-Narrow-Oblique-latin1
    /Helvetica-Narrow-Oblique findfont
    dup length dict begin
	{1 index /FID ne {def} {pop pop} ifelse} forall
	/Encoding isolatin1encoding def
    currentdict end
definefont pop
/Helvetica-Narrow-Bold-latin1
    /Helvetica-Narrow-Bold findfont
    dup length dict begin
	{1 index /FID ne {def} {pop pop} ifelse} forall
	/Encoding isolatin1encoding def
    currentdict end
definefont pop
/Helvetica-Narrow-BoldOblique-latin1
    /Helvetica-Narrow-BoldOblique findfont
    dup length dict begin
	{1 index /FID ne {def} {pop pop} ifelse} forall
	/Encoding isolatin1encoding def
    currentdict end
definefont pop
/NewCenturySchlbk-Roman-latin1
    /NewCenturySchlbk-Roman findfont
    dup length dict begin
	{1 index /FID ne {def} {pop pop} ifelse} forall
	/Encoding isolatin1encoding def
    currentdict end
definefont pop
/NewCenturySchlbk-Italic-latin1
    /NewCenturySchlbk-Italic findfont
    dup length dict begin
	{1 index /FID ne {def} {pop pop} ifelse} forall
	/Encoding isolatin1encoding def
    currentdict end
definefont pop
/NewCenturySchlbk-Bold-latin1
    /NewCenturySchlbk-Bold findfont
    dup length dict begin
	{1 index /FID ne {def} {pop pop} ifelse} forall
	/Encoding isolatin1encoding def
    currentdict end
definefont pop
/NewCenturySchlbk-BoldItalic-latin1
    /NewCenturySchlbk-BoldItalic findfont
    dup length dict begin
	{1 index /FID ne {def} {pop pop} ifelse} forall
	/Encoding isolatin1encoding def
    currentdict end
definefont pop
/Palatino-Roman-latin1
    /Palatino-Roman findfont
    dup length dict begin
	{1 index /FID ne {def} {pop pop} ifelse} forall
	/Encoding isolatin1encoding def
    currentdict end
definefont pop
/Palatino-Italic-latin1
    /Palatino-Italic findfont
    dup length dict begin
	{1 index /FID ne {def} {pop pop} ifelse} forall
	/Encoding isolatin1encoding def
    currentdict end
definefont pop
/Palatino-Bold-latin1
    /Palatino-Bold findfont
    dup length dict begin
	{1 index /FID ne {def} {pop pop} ifelse} forall
	/Encoding isolatin1encoding def
    currentdict end
definefont pop
/Palatino-BoldItalic-latin1
    /Palatino-BoldItalic findfont
    dup length dict begin
	{1 index /FID ne {def} {pop pop} ifelse} forall
	/Encoding isolatin1encoding def
    currentdict end
definefont pop
/Symbol-latin1
    /Symbol findfont
definefont pop
/ZapfChancery-MediumItalic-latin1
    /ZapfChancery-MediumItalic findfont
    dup length dict begin
	{1 index /FID ne {def} {pop pop} ifelse} forall
	/Encoding isolatin1encoding def
    currentdict end
definefont pop
/ZapfDingbats-latin1
    /ZapfDingbats findfont
    dup length dict begin
	{1 index /FID ne {def} {pop pop} ifelse} forall
	/Encoding isolatin1encoding def
    currentdict end
definefont pop
28.346000 -28.346000 scale
-1.125732 -10.550000 translate
%%EndProlog


0.100000 slw
[] 0 sd
0 slc
0 slj
0.100000 slw
0 slc
0 slj
[] 0 sd
0.901961 0.901961 0.901961 srgb
n 2.706250 2.849999 m 2.706250 0.950000 2.706250 0.950000 4.162500 0.950000 c 5.618750 0.950000 5.618750 0.950000 7.075000 0.950000 c 8.531250 0.950000 8.531250 0.950000 8.531250 2.849999 c 8.531250 2.849999 12.900000 2.849999 12.900000 2.849999 c 12.900000 2.849999 12.900000 10.450000 12.900000 10.450000 c 12.900000 10.450000 2.706250 10.450000 2.706250 10.450000 c 2.706250 10.450000 2.706250 4.750001 2.706250 2.849999 c ef
0.000000 0.000000 0.000000 srgb
n 2.706250 2.849999 m 2.706250 0.950000 2.706250 0.950000 4.162500 0.950000 c 5.618750 0.950000 5.618750 0.950000 7.075000 0.950000 c 8.531250 0.950000 8.531250 0.950000 8.531250 2.849999 c 8.531250 2.849999 12.900000 2.849999 12.900000 2.849999 c 12.900000 2.849999 12.900000 10.450000 12.900000 10.450000 c 12.900000 10.450000 2.706250 10.450000 2.706250 10.450000 c 2.706250 10.450000 2.706250 4.750001 2.706250 2.849999 c s
0.010000 slw
0 slc
0 slj
[] 0 sd
n 2.706250 2.849999 m 2.706250 0.950000 2.706250 0.950000 4.162500 0.950000 c 5.618750 0.950000 5.618750 0.950000 7.075000 0.950000 c 8.531250 0.950000 8.531250 0.950000 8.531250 2.849999 c 8.531250 2.849999 12.900000 2.849999 12.900000 2.849999 c 12.900000 2.849999 12.900000 10.450000 12.900000 10.450000 c 12.900000 10.450000 2.706250 10.450000 2.706250 10.450000 c 2.706250 10.450000 2.706250 4.750001 2.706250 2.849999 c s
0.100000 slw
0 slc
0 slj
[] 0 sd
1.000000 1.000000 1.000000 srgb
n 2.706250 10.450000 m 1.250000 3.800001 l 11.443750 3.800001 l 12.900000 10.450000 l ef
0.000000 0.000000 0.000000 srgb
n 2.706250 10.450000 m 1.250000 3.800001 l 11.443750 3.800001 l 12.900000 10.450000 l cp s
0.010000 slw
0 slc
0 slj
[] 0 sd
n 2.706250 10.450000 m 1.250000 3.800001 l 11.443750 3.800001 l 12.900000 10.450000 l cp s
/Helvetica-latin1 ff 0.560000 scf sf
0.100000 slw
[] 0 sd
0 slc
0 slj
0.100000 slw
0 slc
0 slj
[] 0 sd
0.901961 0.901961 0.901961 srgb
n 2.348929 4.660000 m 2.348929 4.250000 2.348929 4.250000 2.724286 4.250000 c 3.099643 4.250000 3.099643 4.250000 3.475000 4.250000 c 3.850357 4.250000 3.850357 4.250000 3.850357 4.660000 c 3.850357 4.660000 4.976429 4.660000 4.976429 4.660000 c 4.976429 4.660000 4.976429 6.300000 4.976429 6.300000 c 4.976429 6.300000 2.348929 6.300000 2.348929 6.300000 c 2.348929 6.300000 2.348929 5.070000 2.348929 4.660000 c ef
0.000000 0.000000 0.000000 srgb
n 2.348929 4.660000 m 2.348929 4.250000 2.348929 4.250000 2.724286 4.250000 c 3.099643 4.250000 3.099643 4.250000 3.475000 4.250000 c 3.850357 4.250000 3.850357 4.250000 3.850357 4.660000 c 3.850357 4.660000 4.976429 4.660000 4.976429 4.660000 c 4.976429 4.660000 4.976429 6.300000 4.976429 6.300000 c 4.976429 6.300000 2.348929 6.300000 2.348929 6.300000 c 2.348929 6.300000 2.348929 5.070000 2.348929 4.660000 c s
0.010000 slw
0 slc
0 slj
[] 0 sd
n 2.348929 4.660000 m 2.348929 4.250000 2.348929 4.250000 2.724286 4.250000 c 3.099643 4.250000 3.099643 4.250000 3.475000 4.250000 c 3.850357 4.250000 3.850357 4.250000 3.850357 4.660000 c 3.850357 4.660000 4.976429 4.660000 4.976429 4.660000 c 4.976429 4.660000 4.976429 6.300000 4.976429 6.300000 c 4.976429 6.300000 2.348929 6.300000 2.348929 6.300000 c 2.348929 6.300000 2.348929 5.070000 2.348929 4.660000 c s
0.100000 slw
0 slc
0 slj
[] 0 sd
1.000000 1.000000 1.000000 srgb
n 2.348929 6.300000 m 1.973571 4.865000 l 4.601071 4.865000 l 4.976429 6.300000 l ef
0.000000 0.000000 0.000000 srgb
n 2.348929 6.300000 m 1.973571 4.865000 l 4.601071 4.865000 l 4.976429 6.300000 l cp s
0.010000 slw
0 slc
0 slj
[] 0 sd
n 2.348929 6.300000 m 1.973571 4.865000 l 4.601071 4.865000 l 4.976429 6.300000 l cp s
(images) dup sw 2 div 3.475000 ex sub 5.427500 m
 gs 1 -1 sc sh gr
0.100000 slw
[] 0 sd
0 slc
0 slj
0.100000 slw
0 slc
0 slj
[] 0 sd
0.901961 0.901961 0.901961 srgb
n 6.400000 4.700000 m 6.400000 4.300000 6.400000 4.300000 6.650000 4.300000 c 6.900000 4.300000 6.900000 4.300000 7.150000 4.300000 c 7.400000 4.300000 7.400000 4.300000 7.400000 4.700000 c 7.400000 4.700000 8.150000 4.700000 8.150000 4.700000 c 8.150000 4.700000 8.150000 6.300000 8.150000 6.300000 c 8.150000 6.300000 6.400000 6.300000 6.400000 6.300000 c 6.400000 6.300000 6.400000 5.100000 6.400000 4.700000 c ef
0.000000 0.000000 0.000000 srgb
n 6.400000 4.700000 m 6.400000 4.300000 6.400000 4.300000 6.650000 4.300000 c 6.900000 4.300000 6.900000 4.300000 7.150000 4.300000 c 7.400000 4.300000 7.400000 4.300000 7.400000 4.700000 c 7.400000 4.700000 8.150000 4.700000 8.150000 4.700000 c 8.150000 4.700000 8.150000 6.300000 8.150000 6.300000 c 8.150000 6.300000 6.400000 6.300000 6.400000 6.300000 c 6.400000 6.300000 6.400000 5.100000 6.400000 4.700000 c s
0.010000 slw
0 slc
0 slj
[] 0 sd
n 6.400000 4.700000 m 6.400000 4.300000 6.400000 4.300000 6.650000 4.300000 c 6.900000 4.300000 6.900000 4.300000 7.150000 4.300000 c 7.400000 4.300000 7.400000 4.300000 7.400000 4.700000 c 7.400000 4.700000 8.150000 4.700000 8.150000 4.700000 c 8.150000 4.700000 8.150000 6.300000 8.150000 6.300000 c 8.150000 6.300000 6.400000 6.300000 6.400000 6.300000 c 6.400000 6.300000 6.400000 5.100000 6.400000 4.700000 c s
0.100000 slw
0 slc
0 slj
[] 0 sd
1.000000 1.000000 1.000000 srgb
n 6.400000 6.300000 m 6.150000 4.900000 l 7.900000 4.900000 l 8.150000 6.300000 l ef
0.000000 0.000000 0.000000 srgb
n 6.400000 6.300000 m 6.150000 4.900000 l 7.900000 4.900000 l 8.150000 6.300000 l cp s
0.010000 slw
0 slc
0 slj
[] 0 sd
n 6.400000 6.300000 m 6.150000 4.900000 l 7.900000 4.900000 l 8.150000 6.300000 l cp s
(css) dup sw 2 div 7.150000 ex sub 5.450000 m
 gs 1 -1 sc sh gr
0.100000 slw
[] 0 sd
0 slc
0 slj
0.100000 slw
0 slc
0 slj
[] 0 sd
0.901961 0.901961 0.901961 srgb
n 9.250000 4.800000 m 9.250000 4.400000 9.250000 4.400000 9.500000 4.400000 c 9.750000 4.400000 9.750000 4.400000 10.000000 4.400000 c 10.250000 4.400000 10.250000 4.400000 10.250000 4.800000 c 10.250000 4.800000 11.000000 4.800000 11.000000 4.800000 c 11.000000 4.800000 11.000000 6.400000 11.000000 6.400000 c 11.000000 6.400000 9.250000 6.400000 9.250000 6.400000 c 9.250000 6.400000 9.250000 5.200000 9.250000 4.800000 c ef
0.000000 0.000000 0.000000 srgb
n 9.250000 4.800000 m 9.250000 4.400000 9.250000 4.400000 9.500000 4.400000 c 9.750000 4.400000 9.750000 4.400000 10.000000 4.400000 c 10.250000 4.400000 10.250000 4.400000 10.250000 4.800000 c 10.250000 4.800000 11.000000 4.800000 11.000000 4.800000 c 11.000000 4.800000 11.000000 6.400000 11.000000 6.400000 c 11.000000 6.400000 9.250000 6.400000 9.250000 6.400000 c 9.250000 6.400000 9.250000 5.200000 9.250000 4.800000 c s
0.010000 slw
0 slc
0 slj
[] 0 sd
n 9.250000 4.800000 m 9.250000 4.400000 9.250000 4.400000 9.500000 4.400000 c 9.750000 4.400000 9.750000 4.400000 10.000000 4.400000 c 10.250000 4.400000 10.250000 4.400000 10.250000 4.800000 c 10.250000 4.800000 11.000000 4.800000 11.000000 4.800000 c 11.000000 4.800000 11.000000 6.400000 11.000000 6.400000 c 11.000000 6.400000 9.250000 6.400000 9.250000 6.400000 c 9.250000 6.400000 9.250000 5.200000 9.250000 4.800000 c s
0.100000 slw
0 slc
0 slj
[] 0 sd
1.000000 1.000000 1.000000 srgb
n 9.250000 6.400000 m 9.000000 5.000000 l 10.750000 5.000000 l 11.000000 6.400000 l ef
0.000000 0.000000 0.000000 srgb
n 9.250000 6.400000 m 9.000000 5.000000 l 10.750000 5.000000 l 11.000000 6.400000 l cp s
0.010000 slw
0 slc
0 slj
[] 0 sd
n 9.250000 6.400000 m 9.000000 5.000000 l 10.750000 5.000000 l 11.000000 6.400000 l cp s
(js) dup sw 2 div 10.000000 ex sub 5.550000 m
 gs 1 -1 sc sh gr
0.100000 slw
[] 0 sd
0 slc
0 slj
0.100000 slw
0 slc
0 slj
[] 0 sd
1.000000 1.000000 1.000000 srgb
n 3.750000 7.050000 m 4.950000 7.050000 l 5.350000 7.450000 l 5.350000 9.050000 l 3.750000 9.050000 l ef
0.000000 0.000000 0.000000 srgb
n 3.750000 7.050000 m 4.950000 7.050000 l 5.350000 7.450000 l 5.350000 9.050000 l 3.750000 9.050000 l cp s
0 slc
0 slj
[] 0 sd
n 4.950000 7.050000 m 4.950000 7.450000 l 5.350000 7.450000 l 5.350000 7.450000 l s
(index.html) 3.209135 9.673462 m
 gs 1 -1 sc sh gr
(monProjet) 4.159135 2.173462 m
 gs 1 -1 sc sh gr
showpage
